{
  " 100 ": "💯",
  " 1234 ": "🔢",
  " grinning ": "😀",
  " grimacing ": "😬",
  " grin ": "😁",
  " joy ": "😂",
  " rofl ": "🤣",
  " smiley ": "😃",
  " smile ": "😄",
  " sweat smile ": "😅",
  " laughing ": "😆",
  " innocent ": "😇",
  " wink ": "😉",
  " blush ": "😊",
  " slightly smiling face ": "🙂",
  " upside down face ": "🙃",
  " relaxed ": "☺️",
  " yum ": "😋",
  " relieved ": "😌",
  " heart eyes ": "😍",
  " kissing heart ": "😘",
  " kissing ": "😗",
  " kissing smiling eyes ": "😙",
  " kissing closed eyes ": "😚",
  " stuck out tongue winking eye ": "😜",
  " stuck out tongue closed eyes ": "😝",
  " stuck out tongue ": "😛",
  " money mouth face ": "🤑",
  " nerd face ": "🤓",
  " sunglasses ": "😎",
  " clown face ": "🤡",
  " cowboy hat face ": "🤠",
  " hugs ": "🤗",
  " smirk ": "😏",
  " no mouth ": "😶",
  " neutral face ": "😐",
  " expressionless ": "😑",
  " unamused ": "😒",
  " roll eyes ": "🙄",
  " thinking ": "🤔",
  " lying face ": "🤥",
  " flushed ": "😳",
  " disappointed ": "😞",
  " worried ": "😟",
  " angry ": "😠",
  " rage ": "😡",
  " pensive ": "😔",
  " confused ": "😕",
  " slightly frowning face ": "🙁",
  " frowning face ": "☹",
  " persevere ": "😣",
  " confounded ": "😖",
  " tired face ": "😫",
  " weary ": "😩",
  " triumph ": "😤",
  " open mouth ": "😮",
  " scream ": "😱",
  " fearful ": "😨",
  " cold sweat ": "😰",
  " hushed ": "😯",
  " frowning ": "😦",
  " anguished ": "😧",
  " cry ": "😢",
  " disappointed relieved ": "😥",
  " drooling face ": "🤤",
  " sleepy ": "😪",
  " sweat ": "😓",
  " sob ": "😭",
  " dizzy face ": "😵",
  " astonished ": "😲",
  " zipper mouth face ": "🤐",
  " nauseated face ": "🤢",
  " sneezing face ": "🤧",
  " mask ": "😷",
  " face with thermometer ": "🤒",
  " face with head bandage ": "🤕",
  " sleeping ": "😴",
  " zzz ": "💤",
  " poop ": "💩",
  " smiling imp ": "😈",
  " imp ": "👿",
  " japanese ogre ": "👹",
  " japanese goblin ": "👺",
  " skull ": "💀",
  " ghost ": "👻",
  " alien ": "👽",
  " robot ": "🤖",
  " smiley cat ": "😺",
  " smile cat ": "😸",
  " joy cat ": "😹",
  " heart eyes cat ": "😻",
  " smirk cat ": "😼",
  " kissing cat ": "😽",
  " scream cat ": "🙀",
  " crying cat face ": "😿",
  " pouting cat ": "😾",
  " raised hands ": "🙌",
  " clap ": "👏",
  " wave ": "👋",
  " call me hand ": "🤙",
  " +1 ": "👍",
  " -1 ": "👎",
  " facepunch ": "👊",
  " fist ": "✊",
  " fist left ": "🤛",
  " fist right ": "🤜",
  " v ": "✌",
  " ok hand ": "👌",
  " raised hand ": "✋",
  " raised back of hand ": "🤚",
  " open hands ": "👐",
  " muscle ": "💪",
  " pray ": "🙏",
  " handshake ": "🤝",
  " point up ": "☝",
  " point up 2 ": "👆",
  " point down ": "👇",
  " point left ": "👈",
  " point right ": "👉",
  " fu ": "🖕",
  " raised hand with fingers splayed ": "🖐",
  " metal ": "🤘",
  " crossed fingers ": "🤞",
  " vulcan salute ": "🖖",
  " writing hand ": "✍",
  " selfie ": "🤳",
  " nail care ": "💅",
  " lips ": "👄",
  " tongue ": "👅",
  " ear ": "👂",
  " nose ": "👃",
  " eye ": "👁",
  " eyes ": "👀",
  " bust in silhouette ": "👤",
  " busts in silhouette ": "👥",
  " speaking head ": "🗣",
  " baby ": "👶",
  " boy ": "👦",
  " girl ": "👧",
  " man ": "👨",
  " woman ": "👩",
  " blonde woman ": "👱‍♀️",
  " blonde man ": "👱",
  " older man ": "👴",
  " older woman ": "👵",
  " man with gua pi mao ": "👲",
  " woman with turban ": "👳‍♀️",
  " man with turban ": "👳",
  " policewoman ": "👮‍♀️",
  " policeman ": "👮",
  " construction worker woman ": "👷‍♀️",
  " construction worker man ": "👷",
  " guardswoman ": "💂‍♀️",
  " guardsman ": "💂",
  " female detective ": "🕵️‍♀️",
  " male detective ": "🕵",
  " woman health worker ": "👩‍⚕️",
  " man health worker ": "👨‍⚕️",
  " woman farmer ": "👩‍🌾",
  " man farmer ": "👨‍🌾",
  " woman cook ": "👩‍🍳",
  " man cook ": "👨‍🍳",
  " woman student ": "👩‍🎓",
  " man student ": "👨‍🎓",
  " woman singer ": "👩‍🎤",
  " man singer ": "👨‍🎤",
  " woman teacher ": "👩‍🏫",
  " man teacher ": "👨‍🏫",
  " woman factory worker ": "👩‍🏭",
  " man factory worker ": "👨‍🏭",
  " woman technologist ": "👩‍💻",
  " man technologist ": "👨‍💻",
  " woman office worker ": "👩‍💼",
  " man office worker ": "👨‍💼",
  " woman mechanic ": "👩‍🔧",
  " man mechanic ": "👨‍🔧",
  " woman scientist ": "👩‍🔬",
  " man scientist ": "👨‍🔬",
  " woman artist ": "👩‍🎨",
  " man artist ": "👨‍🎨",
  " woman firefighter ": "👩‍🚒",
  " man firefighter ": "👨‍🚒",
  " woman pilot ": "👩‍✈️",
  " man pilot ": "👨‍✈️",
  " woman astronaut ": "👩‍🚀",
  " man astronaut ": "👨‍🚀",
  " woman judge ": "👩‍⚖️",
  " man judge ": "👨‍⚖️",
  " mrs claus ": "🤶",
  " santa ": "🎅",
  " angel ": "👼",
  " pregnant woman ": "🤰",
  " princess ": "👸",
  " prince ": "🤴",
  " bride with veil ": "👰",
  " man in tuxedo ": "🤵",
  " running woman ": "🏃‍♀️",
  " running man ": "🏃",
  " walking woman ": "🚶‍♀️",
  " walking man ": "🚶",
  " dancer ": "💃",
  " man dancing ": "🕺",
  " dancing women ": "👯",
  " dancing men ": "👯‍♂️",
  " couple ": "👫",
  " two men holding hands ": "👬",
  " two women holding hands ": "👭",
  " bowing woman ": "🙇‍♀️",
  " bowing man ": "🙇",
  " man facepalming ": "🤦",
  " woman facepalming ": "🤦‍♀️",
  " woman shrugging ": "🤷",
  " man shrugging ": "🤷‍♂️",
  " tipping hand woman ": "💁",
  " tipping hand man ": "💁‍♂️",
  " no good woman ": "🙅",
  " no good man ": "🙅‍♂️",
  " ok woman ": "🙆",
  " ok man ": "🙆‍♂️",
  " raising hand woman ": "🙋",
  " raising hand man ": "🙋‍♂️",
  " pouting woman ": "🙎",
  " pouting man ": "🙎‍♂️",
  " frowning woman ": "🙍",
  " frowning man ": "🙍‍♂️",
  " haircut woman ": "💇",
  " haircut man ": "💇‍♂️",
  " massage woman ": "💆",
  " massage man ": "💆‍♂️",
  " couple with heart woman man ": "💑",
  " couple with heart woman woman ": "👩‍❤️‍👩",
  " couple with heart man man ": "👨‍❤️‍👨",
  " couplekiss man woman ": "💏",
  " couplekiss woman woman ": "👩‍❤️‍💋‍👩",
  " couplekiss man man ": "👨‍❤️‍💋‍👨",
  " family man woman boy ": "👪",
  " family man woman girl ": "👨‍👩‍👧",
  " family man woman girl boy ": "👨‍👩‍👧‍👦",
  " family man woman boy boy ": "👨‍👩‍👦‍👦",
  " family man woman girl girl ": "👨‍👩‍👧‍👧",
  " family woman woman boy ": "👩‍👩‍👦",
  " family woman woman girl ": "👩‍👩‍👧",
  " family woman woman girl boy ": "👩‍👩‍👧‍👦",
  " family woman woman boy boy ": "👩‍👩‍👦‍👦",
  " family woman woman girl girl ": "👩‍👩‍👧‍👧",
  " family man man boy ": "👨‍👨‍👦",
  " family man man girl ": "👨‍👨‍👧",
  " family man man girl boy ": "👨‍👨‍👧‍👦",
  " family man man boy boy ": "👨‍👨‍👦‍👦",
  " family man man girl girl ": "👨‍👨‍👧‍👧",
  " family woman boy ": "👩‍👦",
  " family woman girl ": "👩‍👧",
  " family woman girl boy ": "👩‍👧‍👦",
  " family woman boy boy ": "👩‍👦‍👦",
  " family woman girl girl ": "👩‍👧‍👧",
  " family man boy ": "👨‍👦",
  " family man girl ": "👨‍👧",
  " family man girl boy ": "👨‍👧‍👦",
  " family man boy boy ": "👨‍👦‍👦",
  " family man girl girl ": "👨‍👧‍👧",
  " womans clothes ": "👚",
  " tshirt ": "👕",
  " jeans ": "👖",
  " necktie ": "👔",
  " dress ": "👗",
  " bikini ": "👙",
  " kimono ": "👘",
  " lipstick ": "💄",
  " kiss ": "💋",
  " footprints ": "👣",
  " high heel ": "👠",
  " sandal ": "👡",
  " boot ": "👢",
  " mans shoe ": "👞",
  " athletic shoe ": "👟",
  " womans hat ": "👒",
  " tophat ": "🎩",
  " rescue worker helmet ": "⛑",
  " mortar board ": "🎓",
  " crown ": "👑",
  " school satchel ": "🎒",
  " pouch ": "👝",
  " purse ": "👛",
  " handbag ": "👜",
  " briefcase ": "💼",
  " eyeglasses ": "👓",
  " dark sunglasses ": "🕶",
  " ring ": "💍",
  " closed umbrella ": "🌂",
  " dog ": "🐶",
  " cat ": "🐱",
  " mouse ": "🐭",
  " hamster ": "🐹",
  " rabbit ": "🐰",
  " fox face ": "🦊",
  " bear ": "🐻",
  " panda face ": "🐼",
  " koala ": "🐨",
  " tiger ": "🐯",
  " lion ": "🦁",
  " cow ": "🐮",
  " pig ": "🐷",
  " pig nose ": "🐽",
  " frog ": "🐸",
  " squid ": "🦑",
  " octopus ": "🐙",
  " shrimp ": "🦐",
  " monkey face ": "🐵",
  " gorilla ": "🦍",
  " see no evil ": "🙈",
  " hear no evil ": "🙉",
  " speak no evil ": "🙊",
  " monkey ": "🐒",
  " chicken ": "🐔",
  " penguin ": "🐧",
  " bird ": "🐦",
  " baby chick ": "🐤",
  " hatching chick ": "🐣",
  " hatched chick ": "🐥",
  " duck ": "🦆",
  " eagle ": "🦅",
  " owl ": "🦉",
  " bat ": "🦇",
  " wolf ": "🐺",
  " boar ": "🐗",
  " horse ": "🐴",
  " unicorn ": "🦄",
  " honeybee ": "🐝",
  " bug ": "🐛",
  " butterfly ": "🦋",
  " snail ": "🐌",
  " beetle ": "🐞",
  " ant ": "🐜",
  " spider ": "🕷",
  " scorpion ": "🦂",
  " crab ": "🦀",
  " snake ": "🐍",
  " lizard ": "🦎",
  " turtle ": "🐢",
  " tropical fish ": "🐠",
  " fish ": "🐟",
  " blowfish ": "🐡",
  " dolphin ": "🐬",
  " shark ": "🦈",
  " whale ": "🐳",
  " whale2 ": "🐋",
  " crocodile ": "🐊",
  " leopard ": "🐆",
  " tiger2 ": "🐅",
  " water buffalo ": "🐃",
  " ox ": "🐂",
  " cow2 ": "🐄",
  " deer ": "🦌",
  " dromedary camel ": "🐪",
  " camel ": "🐫",
  " elephant ": "🐘",
  " rhinoceros ": "🦏",
  " goat ": "🐐",
  " ram ": "🐏",
  " sheep ": "🐑",
  " racehorse ": "🐎",
  " pig2 ": "🐖",
  " rat ": "🐀",
  " mouse2 ": "🐁",
  " rooster ": "🐓",
  " turkey ": "🦃",
  " dove ": "🕊",
  " dog2 ": "🐕",
  " poodle ": "🐩",
  " cat2 ": "🐈",
  " rabbit2 ": "🐇",
  " chipmunk ": "🐿",
  " paw prints ": "🐾",
  " dragon ": "🐉",
  " dragon face ": "🐲",
  " cactus ": "🌵",
  " christmas tree ": "🎄",
  " evergreen tree ": "🌲",
  " deciduous tree ": "🌳",
  " palm tree ": "🌴",
  " seedling ": "🌱",
  " herb ": "🌿",
  " shamrock ": "☘",
  " four leaf clover ": "🍀",
  " bamboo ": "🎍",
  " tanabata tree ": "🎋",
  " leaves ": "🍃",
  " fallen leaf ": "🍂",
  " maple leaf ": "🍁",
  " ear of rice ": "🌾",
  " hibiscus ": "🌺",
  " sunflower ": "🌻",
  " rose ": "🌹",
  " wilted flower ": "🥀",
  " tulip ": "🌷",
  " blossom ": "🌼",
  " cherry blossom ": "🌸",
  " bouquet ": "💐",
  " mushroom ": "🍄",
  " chestnut ": "🌰",
  " jack o lantern ": "🎃",
  " shell ": "🐚",
  " spider web ": "🕸",
  " earth americas ": "🌎",
  " earth africa ": "🌍",
  " earth asia ": "🌏",
  " full moon ": "🌕",
  " waning gibbous moon ": "🌖",
  " last quarter moon ": "🌗",
  " waning crescent moon ": "🌘",
  " new moon ": "🌑",
  " waxing crescent moon ": "🌒",
  " first quarter moon ": "🌓",
  " waxing gibbous moon ": "🌔",
  " new moon with face ": "🌚",
  " full moon with face ": "🌝",
  " first quarter moon with face ": "🌛",
  " last quarter moon with face ": "🌜",
  " sun with face ": "🌞",
  " crescent moon ": "🌙",
  " star ": "⭐",
  " star2 ": "🌟",
  " dizzy ": "💫",
  " sparkles ": "✨",
  " comet ": "☄",
  " sunny ": "☀️",
  " sun behind small cloud ": "🌤",
  " partly sunny ": "⛅",
  " sun behind large cloud ": "🌥",
  " sun behind rain cloud ": "🌦",
  " cloud ": "☁️",
  " cloud with rain ": "🌧",
  " cloud with lightning and rain ": "⛈",
  " cloud with lightning ": "🌩",
  " zap ": "⚡",
  " fire ": "🔥",
  " boom ": "💥",
  " snowflake ": "❄️",
  " cloud with snow ": "🌨",
  " snowman ": "⛄",
  " snowman with snow ": "☃",
  " wind face ": "🌬",
  " dash ": "💨",
  " tornado ": "🌪",
  " fog ": "🌫",
  " open umbrella ": "☂",
  " umbrella ": "☔",
  " droplet ": "💧",
  " sweat drops ": "💦",
  " ocean ": "🌊",
  " green apple ": "🍏",
  " apple ": "🍎",
  " pear ": "🍐",
  " tangerine ": "🍊",
  " lemon ": "🍋",
  " banana ": "🍌",
  " watermelon ": "🍉",
  " grapes ": "🍇",
  " strawberry ": "🍓",
  " melon ": "🍈",
  " cherries ": "🍒",
  " peach ": "🍑",
  " pineapple ": "🍍",
  " kiwi fruit ": "🥝",
  " avocado ": "🥑",
  " tomato ": "🍅",
  " eggplant ": "🍆",
  " cucumber ": "🥒",
  " carrot ": "🥕",
  " hot pepper ": "🌶",
  " potato ": "🥔",
  " corn ": "🌽",
  " sweet potato ": "🍠",
  " peanuts ": "🥜",
  " honey pot ": "🍯",
  " croissant ": "🥐",
  " bread ": "🍞",
  " baguette bread ": "🥖",
  " cheese ": "🧀",
  " egg ": "🥚",
  " bacon ": "🥓",
  " pancakes ": "🥞",
  " poultry leg ": "🍗",
  " meat on bone ": "🍖",
  " fried shrimp ": "🍤",
  " fried egg ": "🍳",
  " hamburger ": "🍔",
  " fries ": "🍟",
  " stuffed flatbread ": "🥙",
  " hotdog ": "🌭",
  " pizza ": "🍕",
  " spaghetti ": "🍝",
  " taco ": "🌮",
  " burrito ": "🌯",
  " green salad ": "🥗",
  " shallow pan of food ": "🥘",
  " ramen ": "🍜",
  " stew ": "🍲",
  " fish cake ": "🍥",
  " sushi ": "🍣",
  " bento ": "🍱",
  " curry ": "🍛",
  " rice ball ": "🍙",
  " rice ": "🍚",
  " rice cracker ": "🍘",
  " oden ": "🍢",
  " dango ": "🍡",
  " shaved ice ": "🍧",
  " ice cream ": "🍨",
  " icecream ": "🍦",
  " cake ": "🍰",
  " birthday ": "🎂",
  " custard ": "🍮",
  " candy ": "🍬",
  " lollipop ": "🍭",
  " chocolate bar ": "🍫",
  " popcorn ": "🍿",
  " doughnut ": "🍩",
  " cookie ": "🍪",
  " milk glass ": "🥛",
  " beer ": "🍺",
  " beers ": "🍻",
  " clinking glasses ": "🥂",
  " wine glass ": "🍷",
  " tumbler glass ": "🥃",
  " cocktail ": "🍸",
  " tropical drink ": "🍹",
  " champagne ": "🍾",
  " sake ": "🍶",
  " tea ": "🍵",
  " coffee ": "☕",
  " baby bottle ": "🍼",
  " spoon ": "🥄",
  " fork and knife ": "🍴",
  " plate with cutlery ": "🍽",
  " soccer ": "⚽",
  " basketball ": "🏀",
  " football ": "🏈",
  " baseball ": "⚾",
  " tennis ": "🎾",
  " volleyball ": "🏐",
  " rugby football ": "🏉",
  " 8ball ": "🎱",
  " golf ": "⛳",
  " golfing woman ": "🏌️‍♀️",
  " golfing man ": "🏌",
  " ping pong ": "🏓",
  " badminton ": "🏸",
  " goal net ": "🥅",
  " ice hockey ": "🏒",
  " field hockey ": "🏑",
  " cricket ": "🏏",
  " ski ": "🎿",
  " skier ": "⛷",
  " snowboarder ": "🏂",
  " person fencing ": "🤺",
  " women wrestling ": "🤼‍♀️",
  " men wrestling ": "🤼‍♂️",
  " woman cartwheeling ": "🤸‍♀️",
  " man cartwheeling ": "🤸‍♂️",
  " woman playing handball ": "🤾‍♀️",
  " man playing handball ": "🤾‍♂️",
  " ice skate ": "⛸",
  " bow and arrow ": "🏹",
  " fishing pole and fish ": "🎣",
  " boxing glove ": "🥊",
  " martial arts uniform ": "🥋",
  " rowing woman ": "🚣‍♀️",
  " rowing man ": "🚣",
  " swimming woman ": "🏊‍♀️",
  " swimming man ": "🏊",
  " woman playing water polo ": "🤽‍♀️",
  " man playing water polo ": "🤽‍♂️",
  " surfing woman ": "🏄‍♀️",
  " surfing man ": "🏄",
  " bath ": "🛀",
  " basketball woman ": "⛹️‍♀️",
  " basketball man ": "⛹",
  " weight lifting woman ": "🏋️‍♀️",
  " weight lifting man ": "🏋",
  " biking woman ": "🚴‍♀️",
  " biking man ": "🚴",
  " mountain biking woman ": "🚵‍♀️",
  " mountain biking man ": "🚵",
  " horse racing ": "🏇",
  " business suit levitating ": "🕴",
  " trophy ": "🏆",
  " running shirt with sash ": "🎽",
  " medal sports ": "🏅",
  " medal military ": "🎖",
  " 1st place medal ": "🥇",
  " 2nd place medal ": "🥈",
  " 3rd place medal ": "🥉",
  " reminder ribbon ": "🎗",
  " rosette ": "🏵",
  " ticket ": "🎫",
  " tickets ": "🎟",
  " performing arts ": "🎭",
  " art ": "🎨",
  " circus tent ": "🎪",
  " woman juggling ": "🤹‍♀️",
  " man juggling ": "🤹‍♂️",
  " microphone ": "🎤",
  " headphones ": "🎧",
  " musical score ": "🎼",
  " musical keyboard ": "🎹",
  " drum ": "🥁",
  " saxophone ": "🎷",
  " trumpet ": "🎺",
  " guitar ": "🎸",
  " violin ": "🎻",
  " clapper ": "🎬",
  " video game ": "🎮",
  " space invader ": "👾",
  " dart ": "🎯",
  " game die ": "🎲",
  " slot machine ": "🎰",
  " bowling ": "🎳",
  " red car ": "🚗",
  " taxi ": "🚕",
  " blue car ": "🚙",
  " bus ": "🚌",
  " trolleybus ": "🚎",
  " racing car ": "🏎",
  " police car ": "🚓",
  " ambulance ": "🚑",
  " fire engine ": "🚒",
  " minibus ": "🚐",
  " truck ": "🚚",
  " articulated lorry ": "🚛",
  " tractor ": "🚜",
  " kick scooter ": "🛴",
  " motorcycle ": "🏍",
  " bike ": "🚲",
  " motor scooter ": "🛵",
  " rotating light ": "🚨",
  " oncoming police car ": "🚔",
  " oncoming bus ": "🚍",
  " oncoming automobile ": "🚘",
  " oncoming taxi ": "🚖",
  " aerial tramway ": "🚡",
  " mountain cableway ": "🚠",
  " suspension railway ": "🚟",
  " railway car ": "🚃",
  " train ": "🚋",
  " monorail ": "🚝",
  " bullettrain side ": "🚄",
  " bullettrain front ": "🚅",
  " light rail ": "🚈",
  " mountain railway ": "🚞",
  " steam locomotive ": "🚂",
  " train2 ": "🚆",
  " metro ": "🚇",
  " tram ": "🚊",
  " station ": "🚉",
  " helicopter ": "🚁",
  " small airplane ": "🛩",
  " airplane ": "✈️",
  " flight departure ": "🛫",
  " flight arrival ": "🛬",
  " sailboat ": "⛵",
  " motor boat ": "🛥",
  " speedboat ": "🚤",
  " ferry ": "⛴",
  " passenger ship ": "🛳",
  " rocket ": "🚀",
  " artificial satellite ": "🛰",
  " seat ": "💺",
  " canoe ": "🛶",
  " anchor ": "⚓",
  " construction ": "🚧",
  " fuelpump ": "⛽",
  " busstop ": "🚏",
  " vertical traffic light ": "🚦",
  " traffic light ": "🚥",
  " checkered flag ": "🏁",
  " ship ": "🚢",
  " ferris wheel ": "🎡",
  " roller coaster ": "🎢",
  " carousel horse ": "🎠",
  " building construction ": "🏗",
  " foggy ": "🌁",
  " tokyo tower ": "🗼",
  " factory ": "🏭",
  " fountain ": "⛲",
  " rice scene ": "🎑",
  " mountain ": "⛰",
  " mountain snow ": "🏔",
  " mount fuji ": "🗻",
  " volcano ": "🌋",
  " japan ": "🗾",
  " camping ": "🏕",
  " tent ": "⛺",
  " national park ": "🏞",
  " motorway ": "🛣",
  " railway track ": "🛤",
  " sunrise ": "🌅",
  " sunrise over mountains ": "🌄",
  " desert ": "🏜",
  " beach umbrella ": "🏖",
  " desert island ": "🏝",
  " city sunrise ": "🌇",
  " city sunset ": "🌆",
  " cityscape ": "🏙",
  " night with stars ": "🌃",
  " bridge at night ": "🌉",
  " milky way ": "🌌",
  " stars ": "🌠",
  " sparkler ": "🎇",
  " fireworks ": "🎆",
  " rainbow ": "🌈",
  " houses ": "🏘",
  " european castle ": "🏰",
  " japanese castle ": "🏯",
  " stadium ": "🏟",
  " statue of liberty ": "🗽",
  " house ": "🏠",
  " house with garden ": "🏡",
  " derelict house ": "🏚",
  " office ": "🏢",
  " department store ": "🏬",
  " post office ": "🏣",
  " european post office ": "🏤",
  " hospital ": "🏥",
  " bank ": "🏦",
  " hotel ": "🏨",
  " convenience store ": "🏪",
  " school ": "🏫",
  " love hotel ": "🏩",
  " wedding ": "💒",
  " classical building ": "🏛",
  " church ": "⛪",
  " mosque ": "🕌",
  " synagogue ": "🕍",
  " kaaba ": "🕋",
  " shinto shrine ": "⛩",
  " watch ": "⌚",
  " iphone ": "📱",
  " calling ": "📲",
  " computer ": "💻",
  " keyboard ": "⌨",
  " desktop computer ": "🖥",
  " printer ": "🖨",
  " computer mouse ": "🖱",
  " trackball ": "🖲",
  " joystick ": "🕹",
  " clamp ": "🗜",
  " minidisc ": "💽",
  " floppy disk ": "💾",
  " cd ": "💿",
  " dvd ": "📀",
  " vhs ": "📼",
  " camera ": "📷",
  " camera flash ": "📸",
  " video camera ": "📹",
  " movie camera ": "🎥",
  " film projector ": "📽",
  " film strip ": "🎞",
  " telephone receiver ": "📞",
  " phone ": "☎️",
  " pager ": "📟",
  " fax ": "📠",
  " tv ": "📺",
  " radio ": "📻",
  " studio microphone ": "🎙",
  " level slider ": "🎚",
  " control knobs ": "🎛",
  " stopwatch ": "⏱",
  " timer clock ": "⏲",
  " alarm clock ": "⏰",
  " mantelpiece clock ": "🕰",
  " hourglass flowing sand ": "⏳",
  " hourglass ": "⌛",
  " satellite ": "📡",
  " battery ": "🔋",
  " electric plug ": "🔌",
  " bulb ": "💡",
  " flashlight ": "🔦",
  " candle ": "🕯",
  " wastebasket ": "🗑",
  " oil drum ": "🛢",
  " money with wings ": "💸",
  " dollar ": "💵",
  " yen ": "💴",
  " euro ": "💶",
  " pound ": "💷",
  " moneybag ": "💰",
  " credit card ": "💳",
  " gem ": "💎",
  " balance scale ": "⚖",
  " wrench ": "🔧",
  " hammer ": "🔨",
  " hammer and pick ": "⚒",
  " hammer and wrench ": "🛠",
  " pick ": "⛏",
  " nut and bolt ": "🔩",
  " gear ": "⚙",
  " chains ": "⛓",
  " gun ": "🔫",
  " bomb ": "💣",
  " hocho ": "🔪",
  " dagger ": "🗡",
  " crossed swords ": "⚔",
  " shield ": "🛡",
  " smoking ": "🚬",
  " skull and crossbones ": "☠",
  " coffin ": "⚰",
  " funeral urn ": "⚱",
  " amphora ": "🏺",
  " crystal ball ": "🔮",
  " prayer beads ": "📿",
  " barber ": "💈",
  " alembic ": "⚗",
  " telescope ": "🔭",
  " microscope ": "🔬",
  " hole ": "🕳",
  " pill ": "💊",
  " syringe ": "💉",
  " thermometer ": "🌡",
  " label ": "🏷",
  " bookmark ": "🔖",
  " toilet ": "🚽",
  " shower ": "🚿",
  " bathtub ": "🛁",
  " key ": "🔑",
  " old key ": "🗝",
  " couch and lamp ": "🛋",
  " sleeping bed ": "🛌",
  " bed ": "🛏",
  " door ": "🚪",
  " bellhop bell ": "🛎",
  " framed picture ": "🖼",
  " world map ": "🗺",
  " parasol on ground ": "⛱",
  " moyai ": "🗿",
  " shopping ": "🛍",
  " shopping cart ": "🛒",
  " balloon ": "🎈",
  " flags ": "🎏",
  " ribbon ": "🎀",
  " gift ": "🎁",
  " confetti ball ": "🎊",
  " tada ": "🎉",
  " dolls ": "🎎",
  " wind chime ": "🎐",
  " crossed flags ": "🎌",
  " izakaya lantern ": "🏮",
  " email ": "✉️",
  " envelope with arrow ": "📩",
  " incoming envelope ": "📨",
  " e-mail ": "📧",
  " love letter ": "💌",
  " postbox ": "📮",
  " mailbox closed ": "📪",
  " mailbox ": "📫",
  " mailbox with mail ": "📬",
  " mailbox with no mail ": "📭",
  " package ": "📦",
  " postal horn ": "📯",
  " inbox tray ": "📥",
  " outbox tray ": "📤",
  " scroll ": "📜",
  " page with curl ": "📃",
  " bookmark tabs ": "📑",
  " bar chart ": "📊",
  " chart with upwards trend ": "📈",
  " chart with downwards trend ": "📉",
  " page facing up ": "📄",
  " date ": "📅",
  " calendar ": "📆",
  " spiral calendar ": "🗓",
  " card index ": "📇",
  " card file box ": "🗃",
  " ballot box ": "🗳",
  " file cabinet ": "🗄",
  " clipboard ": "📋",
  " spiral notepad ": "🗒",
  " file folder ": "📁",
  " open file folder ": "📂",
  " card index dividers ": "🗂",
  " newspaper roll ": "🗞",
  " newspaper ": "📰",
  " notebook ": "📓",
  " closed book ": "📕",
  " green book ": "📗",
  " blue book ": "📘",
  " orange book ": "📙",
  " notebook with decorative cover ": "📔",
  " ledger ": "📒",
  " books ": "📚",
  " open book ": "📖",
  " link ": "🔗",
  " paperclip ": "📎",
  " paperclips ": "🖇",
  " scissors ": "✂️",
  " triangular ruler ": "📐",
  " straight ruler ": "📏",
  " pushpin ": "📌",
  " round pushpin ": "📍",
  " triangular flag on post ": "🚩",
  " white flag ": "🏳",
  " black flag ": "🏴",
  " rainbow flag ": "🏳️‍🌈",
  " closed lock with key ": "🔐",
  " lock ": "🔒",
  " unlock ": "🔓",
  " lock with ink pen ": "🔏",
  " pen ": "🖊",
  " fountain pen ": "🖋",
  " black nib ": "✒️",
  " memo ": "📝",
  " pencil2 ": "✏️",
  " crayon ": "🖍",
  " paintbrush ": "🖌",
  " mag ": "🔍",
  " mag right ": "🔎",
  " heart ": "❤️",
  " yellow heart ": "💛",
  " green heart ": "💚",
  " blue heart ": "💙",
  " purple heart ": "💜",
  " black heart ": "🖤",
  " broken heart ": "💔",
  " heavy heart exclamation ": "❣",
  " two hearts ": "💕",
  " revolving hearts ": "💞",
  " heartbeat ": "💓",
  " heartpulse ": "💗",
  " sparkling heart ": "💖",
  " cupid ": "💘",
  " gift heart ": "💝",
  " heart decoration ": "💟",
  " peace symbol ": "☮",
  " latin cross ": "✝",
  " star and crescent ": "☪",
  " om ": "🕉",
  " wheel of dharma ": "☸",
  " star of david ": "✡",
  " six pointed star ": "🔯",
  " menorah ": "🕎",
  " yin yang ": "☯",
  " orthodox cross ": "☦",
  " place of worship ": "🛐",
  " ophiuchus ": "⛎",
  " aries ": "♈",
  " taurus ": "♉",
  " gemini ": "♊",
  " cancer ": "♋",
  " leo ": "♌",
  " virgo ": "♍",
  " libra ": "♎",
  " scorpius ": "♏",
  " sagittarius ": "♐",
  " capricorn ": "♑",
  " aquarius ": "♒",
  " pisces ": "♓",
  " id ": "🆔",
  " atom symbol ": "⚛",
  " u7a7a ": "🈳",
  " u5272 ": "🈹",
  " radioactive ": "☢",
  " biohazard ": "☣",
  " mobile phone off ": "📴",
  " vibration mode ": "📳",
  " u6709 ": "🈶",
  " u7121 ": "🈚",
  " u7533 ": "🈸",
  " u55b6 ": "🈺",
  " u6708 ": "🈷️",
  " eight pointed black star ": "✴️",
  " vs ": "🆚",
  " accept ": "🉑",
  " white flower ": "💮",
  " ideograph advantage ": "🉐",
  " secret ": "㊙️",
  " congratulations ": "㊗️",
  " u5408 ": "🈴",
  " u6e80 ": "🈵",
  " u7981 ": "🈲",
  " a ": "🅰️",
  " b ": "🅱️",
  " ab ": "🆎",
  " cl ": "🆑",
  " o2 ": "🅾️",
  " sos ": "🆘",
  " no entry ": "⛔",
  " name badge ": "📛",
  " no entry sign ": "🚫",
  " x ": "❌",
  " o ": "⭕",
  " stop sign ": "🛑",
  " anger ": "💢",
  " hotsprings ": "♨️",
  " no pedestrians ": "🚷",
  " do not litter ": "🚯",
  " no bicycles ": "🚳",
  " non-potable water ": "🚱",
  " underage ": "🔞",
  " no mobile phones ": "📵",
  " exclamation ": "❗",
  " grey exclamation ": "❕",
  " question ": "❓",
  " grey question ": "❔",
  " bangbang ": "‼️",
  " interrobang ": "⁉️",
  " low brightness ": "🔅",
  " high brightness ": "🔆",
  " trident ": "🔱",
  " fleur de lis ": "⚜",
  " part alternation mark ": "〽️",
  " warning ": "⚠️",
  " children crossing ": "🚸",
  " beginner ": "🔰",
  " recycle ": "♻️",
  " u6307 ": "🈯",
  " chart ": "💹",
  " sparkle ": "❇️",
  " eight spoked asterisk ": "✳️",
  " negative squared cross mark ": "❎",
  " white check mark ": "✅",
  " diamond shape with a dot inside ": "💠",
  " cyclone ": "🌀",
  " loop ": "➿",
  " globe with meridians ": "🌐",
  " m ": "Ⓜ️",
  " atm ": "🏧",
  " sa ": "🈂️",
  " passport control ": "🛂",
  " customs ": "🛃",
  " baggage claim ": "🛄",
  " left luggage ": "🛅",
  " wheelchair ": "♿",
  " no smoking ": "🚭",
  " wc ": "🚾",
  " parking ": "🅿️",
  " potable water ": "🚰",
  " mens ": "🚹",
  " womens ": "🚺",
  " baby symbol ": "🚼",
  " restroom ": "🚻",
  " put litter in its place ": "🚮",
  " cinema ": "🎦",
  " signal strength ": "📶",
  " koko ": "🈁",
  " ng ": "🆖",
  " ok ": "🆗",
  " up ": "🆙",
  " cool ": "🆒",
  " new ": "🆕",
  " free ": "🆓",
  " zero ": "0️⃣",
  " one ": "1️⃣",
  " two ": "2️⃣",
  " three ": "3️⃣",
  " four ": "4️⃣",
  " five ": "5️⃣",
  " six ": "6️⃣",
  " seven ": "7️⃣",
  " eight ": "8️⃣",
  " nine ": "9️⃣",
  " keycap ten ": "🔟",
  " asterisk ": " ⃣",
  " arrow forward ": "▶️",
  " pause button ": "⏸",
  " next track button ": "⏭",
  " stop button ": "⏹",
  " record button ": "⏺",
  " play or pause button ": "⏯",
  " previous track button ": "⏮",
  " fast forward ": "⏩",
  " rewind ": "⏪",
  " twisted rightwards arrows ": "🔀",
  " repeat ": "🔁",
  " repeat one ": "🔂",
  " arrow backward ": "◀️",
  " arrow up small ": "🔼",
  " arrow down small ": "🔽",
  " arrow double up ": "⏫",
  " arrow double down ": "⏬",
  " arrow right ": "➡️",
  " arrow left ": "⬅️",
  " arrow up ": "⬆️",
  " arrow down ": "⬇️",
  " arrow upper right ": "↗️",
  " arrow lower right ": "↘️",
  " arrow lower left ": "↙️",
  " arrow upper left ": "↖️",
  " arrow up down ": "↕️",
  " left right arrow ": "↔️",
  " arrows counterclockwise ": "🔄",
  " arrow right hook ": "↪️",
  " leftwards arrow with hook ": "↩️",
  " arrow heading up ": "⤴️",
  " arrow heading down ": "⤵️",
  " hash ": "#️⃣",
  " information source ": "ℹ️",
  " abc ": "🔤",
  " abcd ": "🔡",
  " capital abcd ": "🔠",
  " symbols ": "🔣",
  " musical note ": "🎵",
  " notes ": "🎶",
  " wavy dash ": "〰️",
  " curly loop ": "➰",
  " heavy check mark ": "✔️",
  " arrows clockwise ": "🔃",
  " heavy plus sign ": "➕",
  " heavy minus sign ": "➖",
  " heavy division sign ": "➗",
  " heavy multiplication x ": "✖️",
  " heavy dollar sign ": "💲",
  " currency exchange ": "💱",
  " copyright ": "©️",
  " registered ": "®️",
  " tm ": "™️",
  " end ": "🔚",
  " back ": "🔙",
  " on ": "🔛",
  " top ": "🔝",
  " soon ": "🔜",
  " ballot box with check ": "☑️",
  " radio button ": "🔘",
  " white circle ": "⚪",
  " black circle ": "⚫",
  " red circle ": "🔴",
  " large blue circle ": "🔵",
  " small orange diamond ": "🔸",
  " small blue diamond ": "🔹",
  " large orange diamond ": "🔶",
  " large blue diamond ": "🔷",
  " small red triangle ": "🔺",
  " black small square ": "▪️",
  " white small square ": "▫️",
  " black large square ": "⬛",
  " white large square ": "⬜",
  " small red triangle down ": "🔻",
  " black medium square ": "◼️",
  " white medium square ": "◻️",
  " black medium small square ": "◾",
  " white medium small square ": "◽",
  " black square button ": "🔲",
  " white square button ": "🔳",
  " speaker ": "🔈",
  " sound ": "🔉",
  " loud sound ": "🔊",
  " mute ": "🔇",
  " mega ": "📣",
  " loudspeaker ": "📢",
  " bell ": "🔔",
  " no bell ": "🔕",
  " black joker ": "🃏",
  " mahjong ": "🀄",
  " spades ": "♠️",
  " clubs ": "♣️",
  " hearts ": "♥️",
  " diamonds ": "♦️",
  " flower playing cards ": "🎴",
  " thought balloon ": "💭",
  " right anger bubble ": "🗯",
  " speech balloon ": "💬",
  " left speech bubble ": "🗨",
  " clock1 ": "🕐",
  " clock2 ": "🕑",
  " clock3 ": "🕒",
  " clock4 ": "🕓",
  " clock5 ": "🕔",
  " clock6 ": "🕕",
  " clock7 ": "🕖",
  " clock8 ": "🕗",
  " clock9 ": "🕘",
  " clock10 ": "🕙",
  " clock11 ": "🕚",
  " clock12 ": "🕛",
  " clock130 ": "🕜",
  " clock230 ": "🕝",
  " clock330 ": "🕞",
  " clock430 ": "🕟",
  " clock530 ": "🕠",
  " clock630 ": "🕡",
  " clock730 ": "🕢",
  " clock830 ": "🕣",
  " clock930 ": "🕤",
  " clock1030 ": "🕥",
  " clock1130 ": "🕦",
  " clock1230 ": "🕧",
  " afghanistan ": "🇦🇫",
  " aland islands ": "🇦🇽",
  " albania ": "🇦🇱",
  " algeria ": "🇩🇿",
  " american samoa ": "🇦🇸",
  " andorra ": "🇦🇩",
  " angola ": "🇦🇴",
  " anguilla ": "🇦🇮",
  " antarctica ": "🇦🇶",
  " antigua barbuda ": "🇦🇬",
  " argentina ": "🇦🇷",
  " armenia ": "🇦🇲",
  " aruba ": "🇦🇼",
  " australia ": "🇦🇺",
  " austria ": "🇦🇹",
  " azerbaijan ": "🇦🇿",
  " bahamas ": "🇧🇸",
  " bahrain ": "🇧🇭",
  " bangladesh ": "🇧🇩",
  " barbados ": "🇧🇧",
  " belarus ": "🇧🇾",
  " belgium ": "🇧🇪",
  " belize ": "🇧🇿",
  " benin ": "🇧🇯",
  " bermuda ": "🇧🇲",
  " bhutan ": "🇧🇹",
  " bolivia ": "🇧🇴",
  " caribbean netherlands ": "🇧🇶",
  " bosnia herzegovina ": "🇧🇦",
  " botswana ": "🇧🇼",
  " brazil ": "🇧🇷",
  " british indian ocean territory ": "🇮🇴",
  " british virgin islands ": "🇻🇬",
  " brunei ": "🇧🇳",
  " bulgaria ": "🇧🇬",
  " burkina faso ": "🇧🇫",
  " burundi ": "🇧🇮",
  " cape verde ": "🇨🇻",
  " cambodia ": "🇰🇭",
  " cameroon ": "🇨🇲",
  " canada ": "🇨🇦",
  " canary islands ": "🇮🇨",
  " cayman islands ": "🇰🇾",
  " central african republic ": "🇨🇫",
  " chad ": "🇹🇩",
  " chile ": "🇨🇱",
  " cn ": "🇨🇳",
  " christmas island ": "🇨🇽",
  " cocos islands ": "🇨🇨",
  " colombia ": "🇨🇴",
  " comoros ": "🇰🇲",
  " congo brazzaville ": "🇨🇬",
  " congo kinshasa ": "🇨🇩",
  " cook islands ": "🇨🇰",
  " costa rica ": "🇨🇷",
  " croatia ": "🇭🇷",
  " cuba ": "🇨🇺",
  " curacao ": "🇨🇼",
  " cyprus ": "🇨🇾",
  " czech republic ": "🇨🇿",
  " denmark ": "🇩🇰",
  " djibouti ": "🇩🇯",
  " dominica ": "🇩🇲",
  " dominican republic ": "🇩🇴",
  " ecuador ": "🇪🇨",
  " egypt ": "🇪🇬",
  " el salvador ": "🇸🇻",
  " equatorial guinea ": "🇬🇶",
  " eritrea ": "🇪🇷",
  " estonia ": "🇪🇪",
  " ethiopia ": "🇪🇹",
  " eu ": "🇪🇺",
  " falkland islands ": "🇫🇰",
  " faroe islands ": "🇫🇴",
  " fiji ": "🇫🇯",
  " finland ": "🇫🇮",
  " fr ": "🇫🇷",
  " french guiana ": "🇬🇫",
  " french polynesia ": "🇵🇫",
  " french southern territories ": "🇹🇫",
  " gabon ": "🇬🇦",
  " gambia ": "🇬🇲",
  " georgia ": "🇬🇪",
  " de ": "🇩🇪",
  " ghana ": "🇬🇭",
  " gibraltar ": "🇬🇮",
  " greece ": "🇬🇷",
  " greenland ": "🇬🇱",
  " grenada ": "🇬🇩",
  " guadeloupe ": "🇬🇵",
  " guam ": "🇬🇺",
  " guatemala ": "🇬🇹",
  " guernsey ": "🇬🇬",
  " guinea ": "🇬🇳",
  " guinea bissau ": "🇬🇼",
  " guyana ": "🇬🇾",
  " haiti ": "🇭🇹",
  " honduras ": "🇭🇳",
  " hong kong ": "🇭🇰",
  " hungary ": "🇭🇺",
  " iceland ": "🇮🇸",
  " india ": "🇮🇳",
  " indonesia ": "🇮🇩",
  " iran ": "🇮🇷",
  " iraq ": "🇮🇶",
  " ireland ": "🇮🇪",
  " isle of man ": "🇮🇲",
  " israel ": "🇮🇱",
  " it ": "🇮🇹",
  " cote divoire ": "🇨🇮",
  " jamaica ": "🇯🇲",
  " jp ": "🇯🇵",
  " jersey ": "🇯🇪",
  " jordan ": "🇯🇴",
  " kazakhstan ": "🇰🇿",
  " kenya ": "🇰🇪",
  " kiribati ": "🇰🇮",
  " kosovo ": "🇽🇰",
  " kuwait ": "🇰🇼",
  " kyrgyzstan ": "🇰🇬",
  " laos ": "🇱🇦",
  " latvia ": "🇱🇻",
  " lebanon ": "🇱🇧",
  " lesotho ": "🇱🇸",
  " liberia ": "🇱🇷",
  " libya ": "🇱🇾",
  " liechtenstein ": "🇱🇮",
  " lithuania ": "🇱🇹",
  " luxembourg ": "🇱🇺",
  " macau ": "🇲🇴",
  " macedonia ": "🇲🇰",
  " madagascar ": "🇲🇬",
  " malawi ": "🇲🇼",
  " malaysia ": "🇲🇾",
  " maldives ": "🇲🇻",
  " mali ": "🇲🇱",
  " malta ": "🇲🇹",
  " marshall islands ": "🇲🇭",
  " martinique ": "🇲🇶",
  " mauritania ": "🇲🇷",
  " mauritius ": "🇲🇺",
  " mayotte ": "🇾🇹",
  " mexico ": "🇲🇽",
  " micronesia ": "🇫🇲",
  " moldova ": "🇲🇩",
  " monaco ": "🇲🇨",
  " mongolia ": "🇲🇳",
  " montenegro ": "🇲🇪",
  " montserrat ": "🇲🇸",
  " morocco ": "🇲🇦",
  " mozambique ": "🇲🇿",
  " myanmar ": "🇲🇲",
  " namibia ": "🇳🇦",
  " nauru ": "🇳🇷",
  " nepal ": "🇳🇵",
  " netherlands ": "🇳🇱",
  " new caledonia ": "🇳🇨",
  " new zealand ": "🇳🇿",
  " nicaragua ": "🇳🇮",
  " niger ": "🇳🇪",
  " nigeria ": "🇳🇬",
  " niue ": "🇳🇺",
  " norfolk island ": "🇳🇫",
  " northern mariana islands ": "🇲🇵",
  " north korea ": "🇰🇵",
  " norway ": "🇳🇴",
  " oman ": "🇴🇲",
  " pakistan ": "🇵🇰",
  " palau ": "🇵🇼",
  " palestinian territories ": "🇵🇸",
  " panama ": "🇵🇦",
  " papua new guinea ": "🇵🇬",
  " paraguay ": "🇵🇾",
  " peru ": "🇵🇪",
  " philippines ": "🇵🇭",
  " pitcairn islands ": "🇵🇳",
  " poland ": "🇵🇱",
  " portugal ": "🇵🇹",
  " puerto rico ": "🇵🇷",
  " qatar ": "🇶🇦",
  " reunion ": "🇷🇪",
  " romania ": "🇷🇴",
  " ru ": "🇷🇺",
  " rwanda ": "🇷🇼",
  " st barthelemy ": "🇧🇱",
  " st helena ": "🇸🇭",
  " st kitts nevis ": "🇰🇳",
  " st lucia ": "🇱🇨",
  " st pierre miquelon ": "🇵🇲",
  " st vincent grenadines ": "🇻🇨",
  " samoa ": "🇼🇸",
  " san marino ": "🇸🇲",
  " sao tome principe ": "🇸🇹",
  " saudi arabia ": "🇸🇦",
  " senegal ": "🇸🇳",
  " serbia ": "🇷🇸",
  " seychelles ": "🇸🇨",
  " sierra leone ": "🇸🇱",
  " singapore ": "🇸🇬",
  " sint maarten ": "🇸🇽",
  " slovakia ": "🇸🇰",
  " slovenia ": "🇸🇮",
  " solomon islands ": "🇸🇧",
  " somalia ": "🇸🇴",
  " south africa ": "🇿🇦",
  " south georgia south sandwich islands ": "🇬🇸",
  " kr ": "🇰🇷",
  " south sudan ": "🇸🇸",
  " es ": "🇪🇸",
  " sri lanka ": "🇱🇰",
  " sudan ": "🇸🇩",
  " suriname ": "🇸🇷",
  " swaziland ": "🇸🇿",
  " sweden ": "🇸🇪",
  " switzerland ": "🇨🇭",
  " syria ": "🇸🇾",
  " taiwan ": "🇹🇼",
  " tajikistan ": "🇹🇯",
  " tanzania ": "🇹🇿",
  " thailand ": "🇹🇭",
  " timor leste ": "🇹🇱",
  " togo ": "🇹🇬",
  " tokelau ": "🇹🇰",
  " tonga ": "🇹🇴",
  " trinidad tobago ": "🇹🇹",
  " tunisia ": "🇹🇳",
  " tr ": "🇹🇷",
  " turkmenistan ": "🇹🇲",
  " turks caicos islands ": "🇹🇨",
  " tuvalu ": "🇹🇻",
  " uganda ": "🇺🇬",
  " ukraine ": "🇺🇦",
  " united arab emirates ": "🇦🇪",
  " uk ": "🇬🇧",
  " us ": "🇺🇸",
  " us virgin islands ": "🇻🇮",
  " uruguay ": "🇺🇾",
  " uzbekistan ": "🇺🇿",
  " vanuatu ": "🇻🇺",
  " vatican city ": "🇻🇦",
  " venezuela ": "🇻🇪",
  " vietnam ": "🇻🇳",
  " wallis futuna ": "🇼🇫",
  " western sahara ": "🇪🇭",
  " yemen ": "🇾🇪",
  " zambia ": "🇿🇲",
  " zimbabwe ": "🇿🇼"
}
